*Heading 
** Job name: 1104_Temp3_S Model name: Bending1104
** Generated by: Abaqus/CAE 2017
*Preprint, echo=NO, model=NO, history=NO, contact=NO
**
** PARTS
**
*Part, name=PART-1
*Node
      1,   2.1775334,   5.3470087,   4.4962659
      2,   0.8899900,   5.5621939,   4.5523701
      3,   1.6268910,   6.5349941,   5.4096837
      4,   2.9981871,   5.5390348,   6.1068645
      5,   0.1528218,   6.0969100,   5.4221530
      6,   0.7564914,   6.8087549,   6.3649044
      7,   2.0187614,   6.5813808,   6.9671798
      8,   1.2317483,   4.2242160,   4.5357127
      9,   2.5868940,   3.8210168,   5.6725669
     10,   0.0615848,   4.6261582,   4.9775605
     11,   -0.4066776,   6.3106914,   6.6729650
     12,   0.6942296,   6.7818799,   7.6970534
     13,   2.7186441,   5.4704251,   7.4590273
     14,   1.8622264,   5.9718037,   8.3127012
     15,   2.8702891,   4.3174939,   6.9313364
     16,   -0.6491765,   5.2548962,   5.9011521
     17,   0.6385452,   6.0959578,   8.8995800
     18,   0.7780717,   3.3691967,   5.6338425
     19,   1.8243550,   3.2828207,   6.9733248
     20,   2.2644157,   4.4280043,   8.1567507
     21,   -0.4902243,   3.9198143,   6.2172947
     22,   -1.1202172,   5.0539012,   7.0733476
     23,   -0.6457959,   6.0691571,   8.1915350
     24,   1.1954827,   4.7951698,   9.1869326
     25,   -0.1780410,   5.2536855,   9.2867355
     26,   0.3904928,   3.1571085,   6.9015641
     27,   0.9213908,   3.4115827,   8.2160082
     28,   -0.5673875,   3.6926246,   7.6789908
     29,   -0.9908066,   4.7657213,   8.4452219
     30,   -0.1007738,   4.0357437,   8.9278688
     31,   1.2360309,   4.7842999,   7.3450313
     32,   0.3477743,   5.0902719,   6.3106174
     33,   0.8601108,   4.0692267,   6.5975914
     34,   0.1812363,   4.2827163,   7.5444984
     35,   0.8817332,   5.8092923,   7.8589044
     36,   0.0312810,   5.3865271,   7.5067525
     37,   1.9724938,   4.9078150,   6.3896441
     38,   1.1314113,   5.2702432,   5.8292918
     39,   -1.6236514,   2.6626167,   9.7635517
     40,   -1.6236514,   7.3142633,   9.7635517
     41,   -1.6236514,   7.3142633,   3.9730825
     42,   -1.6236514,   2.6626167,   3.9730825
     43,   3.4947529,   7.3142633,   9.7635517
     44,   3.4947529,   7.3142633,   3.9730825
     45,   3.4947529,   2.6626167,   3.9730825
     46,   3.4947529,   2.6626167,   9.7635517
     47,   -1.6236514,   4.9884400,   9.7635517
     48,   -1.6236514,   7.3142633,   7.8333955
     49,   -1.6236514,   7.3142633,   5.9032388
     50,   -1.6236514,   4.9884400,   3.9730825
     51,   -1.6236514,   2.6626167,   5.9032388
     52,   -1.6236514,   2.6626167,   7.8333955
     53,   0.0824834,   7.3142633,   9.7635517
     54,   1.7886182,   7.3142633,   9.7635517
     55,   3.4947529,   7.3142633,   7.8333955
     56,   3.4947529,   7.3142633,   5.9032388
     57,   1.7886182,   7.3142633,   3.9730825
     58,   0.0824834,   7.3142633,   3.9730825
     59,   1.7886182,   2.6626167,   3.9730825
     60,   0.0824834,   2.6626167,   3.9730825
     61,   3.4947529,   4.9884400,   3.9730825
     62,   1.7886182,   2.6626167,   9.7635517
     63,   0.0824834,   2.6626167,   9.7635517
     64,   3.4947529,   2.6626167,   5.9032388
     65,   3.4947529,   2.6626167,   7.8333955
     66,   3.4947529,   4.9884400,   9.7635517
     67,   -1.6236514,   4.9884400,   7.8333955
     68,   -1.6236514,   4.9884400,   5.9032388
     69,   0.0824834,   7.3142633,   7.8333955
     70,   1.7886182,   7.3142633,   7.8333955
     71,   0.0824834,   7.3142633,   5.9032388
     72,   1.7886182,   7.3142633,   5.9032388
     73,   1.7886182,   4.9884400,   3.9730825
     74,   0.0824834,   4.9884400,   3.9730825
     75,   1.7886182,   2.6626167,   7.8333955
     76,   0.0824834,   2.6626167,   7.8333955
     77,   1.7886182,   2.6626167,   5.9032388
     78,   0.0824834,   2.6626167,   5.9032388
     79,   0.0824834,   4.9884400,   9.7635517
     80,   1.7886182,   4.9884400,   9.7635517
     81,   3.4947529,   4.9884400,   7.8333955
     82,   3.4947529,   4.9884400,   5.9032388
     83,   -0.9473319,   3.9655750,   8.7095108
     84,   -0.5178335,   5.9937706,   4.9662123
*Element, type=C3D4 
1,   83,   47,   29,   67
2,   83,   29,   47,   25
3,   83,   28,   67,   29
4,   76,   52,   83,   28
5,   63,   52,   83,   76
6,   84,   58,   5,   74
7,   84,   10,   74,   5
8,   84,   16,   5,   11
9,   84,   10,   5,   16
10,   84,   16,   49,   68
11,   50,   68,   10,   84
12,   79,   62,   30,   24
13,   27,   20,   62,   75
14,   25,   30,   24,   79
15,   24,   14,   17,   80
16,   49,   22,   16,   11
17,   49,   48,   67,   22
18,   28,   76,   30,   83
19,   28,   68,   51,   52
20,   68,   22,   28,   21
21,   22,   48,   67,   23
22,   42,   21,   60,   50
23,   21,   10,   50,   68
24,   63,   79,   62,   30
25,   22,   16,   21,   68
26,   21,   78,   60,   18
27,   42,   78,   60,   21
28,   25,   17,   53,   79
29,   83,   25,   79,   30
30,   29,   23,   67,   47
31,   23,   11,   22,   48
32,   24,   80,   20,   14
33,   23,   69,   12,   11
34,   70,   54,   17,   14
35,   14,   70,   12,   17
36,   17,   80,   14,   54
37,   24,   20,   80,   62
38,   20,   65,   19,   15
39,   18,   19,   26,   78
40,   27,   76,   63,   30
41,   19,   15,   65,   64
42,   19,   18,   9,   77
43,   20,   75,   19,   65
44,   28,   27,   30,   76
45,   9,   8,   59,   77
46,   77,   8,   59,   60
47,   60,   18,   77,   8
48,   73,   1,   45,   61
49,   84,   74,   10,   50
50,   28,   78,   21,   26
51,   84,   16,   11,   49
52,   20,   80,   62,   46
53,   23,   12,   69,   17
54,   14,   13,   7,   55
55,   20,   66,   46,   65
56,   23,   69,   48,   40
57,   20,   14,   80,   66
58,   19,   77,   9,   64
59,   81,   13,   4,   15
60,   15,   64,   9,   82
61,   20,   13,   81,   15
62,   15,   9,   4,   82
63,   13,   7,   55,   4
64,   7,   72,   6,   12
65,   20,   14,   81,   13
66,   12,   6,   11,   69
67,   25,   79,   24,   17
68,   68,   49,   22,   16
69,   84,   49,   11,   71
70,   11,   71,   6,   5
71,   25,   23,   53,   17
72,   23,   40,   25,   53
73,   59,   45,   8,   9
74,   21,   68,   16,   10
75,   18,   21,   10,   60
76,   10,   8,   74,   2
77,   47,   23,   40,   25
78,   19,   15,   64,   9
79,   73,   59,   45,   8
80,   20,   81,   65,   15
81,   59,   77,   64,   9
82,   15,   81,   65,   64
83,   26,   18,   78,   21
84,   8,   45,   1,   9
85,   8,   60,   10,   74
86,   18,   60,   10,   8
87,   14,   13,   55,   81
88,   7,   6,   72,   3
89,   19,   77,   78,   18
90,   7,   55,   4,   56
91,   15,   81,   82,   4
92,   83,   63,   79,   47
93,   14,   12,   70,   7
94,   72,   3,   56,   7
95,   6,   3,   71,   72
96,   11,   69,   6,   71
97,   84,   74,   41,   58
98,   10,   5,   2,   74
99,   2,   57,   58,   5
100,   9,   1,   4,   82
101,   82,   45,   9,   61
102,   14,   55,   7,   70
103,   55,   13,   4,   81
104,   57,   3,   5,   2
105,   5,   57,   58,   71
106,   56,   1,   4,   3
107,   21,   60,   50,   10
108,   61,   44,   1,   56
109,   1,   44,   3,   56
110,   28,   67,   29,   22
111,   9,   82,   64,   45
112,   8,   2,   1,   73
113,   9,   61,   1,   82
114,   3,   1,   2,   57
115,   67,   28,   68,   22
116,   84,   74,   50,   41
117,   69,   70,   12,   72
118,   1,   73,   2,   57
119,   2,   73,   58,   57
120,   5,   2,   74,   58
121,   4,   81,   82,   55
122,   26,   75,   76,   78
123,   56,   61,   82,   1
124,   20,   66,   81,   14
125,   43,   81,   14,   55
126,   7,   56,   70,   55
127,   70,   17,   53,   69
128,   69,   17,   53,   23
129,   47,   25,   40,   79
130,   55,   43,   54,   14
131,   83,   67,   28,   52
132,   18,   77,   78,   60
133,   11,   71,   49,   48
134,   23,   69,   11,   48
135,   19,   64,   65,   77
136,   19,   65,   75,   77
137,   28,   76,   26,   27
138,   52,   67,   28,   68
139,   27,   30,   63,   62
140,   83,   63,   47,   39
141,   83,   30,   79,   63
142,   83,   76,   30,   63
143,   15,   82,   81,   64
144,   9,   59,   45,   64
145,   4,   55,   82,   56
146,   20,   46,   62,   75
147,   74,   59,   8,   60
148,   8,   74,   2,   73
149,   10,   74,   60,   50
150,   8,   73,   59,   74
151,   61,   57,   73,   1
152,   82,   1,   4,   56
153,   71,   3,   5,   57
154,   57,   3,   44,   72
155,   57,   1,   44,   3
156,   66,   80,   54,   14
157,   73,   8,   45,   1
158,   12,   72,   6,   69
159,   20,   75,   65,   46
160,   23,   48,   67,   47
161,   53,   54,   17,   70
162,   17,   12,   69,   70
163,   84,   49,   71,   58
164,   68,   10,   84,   16
165,   84,   41,   68,   49
166,   84,   49,   58,   41
167,   80,   79,   53,   17
168,   48,   11,   22,   49
169,   1,   45,   61,   9
170,   67,   68,   49,   22
171,   6,   71,   3,   5
172,   78,   76,   28,   51
173,   72,   70,   12,   7
174,   21,   51,   68,   50
175,   27,   30,   62,   24
176,   3,   57,   71,   72
177,   20,   66,   65,   81
178,   6,   72,   71,   69
179,   11,   71,   48,   69
180,   8,   18,   77,   9
181,   75,   77,   78,   19
182,   78,   19,   26,   75
183,   26,   76,   28,   78
184,   17,   80,   54,   53
185,   24,   80,   79,   62
186,   27,   76,   75,   62
187,   51,   78,   42,   21
188,   51,   78,   21,   28
189,   2,   73,   74,   58
190,   51,   28,   52,   76
191,   7,   56,   72,   70
192,   66,   81,   14,   43
193,   83,   29,   25,   30
194,   27,   26,   75,   76
195,   84,   5,   58,   71
196,   14,   43,   54,   66
197,   23,   48,   47,   40
198,   84,   71,   11,   5
199,   27,   75,   26,   19
200,   3,   44,   72,   56
201,   51,   21,   42,   50
202,   27,   19,   20,   75
203,   27,   24,   62,   20
204,   14,   55,   70,   54
205,   27,   76,   62,   63
206,   69,   53,   40,   23
207,   83,   67,   39,   47
208,   24,   79,   80,   17
209,   3,   56,   7,   4
210,   83,   63,   39,   52
211,   57,   61,   44,   1
212,   29,   47,   25,   23
213,   83,   25,   47,   79
214,   29,   23,   22,   67
215,   25,   40,   79,   53
216,   83,   67,   52,   39
217,   20,   66,   80,   46
218,   21,   68,   51,   28
219,   83,   28,   29,   30
220,   84,   41,   50,   68
221,   31,   32,   33,   34
222,   31,   35,   36,   24
223,   13,   31,   14,   7
224,   14,   31,   24,   35
225,   31,   14,   7,   35
226,   31,   37,   13,   15
227,   36,   35,   12,   23
228,   5,   32,   10,   38
229,   38,   37,   8,   1
230,   4,   37,   3,   1
231,   37,   3,   1,   38
232,   38,   37,   3,   7
233,   6,   32,   5,   38
234,   34,   28,   26,   27
235,   38,   33,   18,   37
236,   37,   31,   38,   33
237,   33,   34,   26,   27
238,   9,   37,   18,   19
239,   9,   37,   8,   18
240,   33,   32,   10,   21
241,   33,   32,   21,   34
242,   31,   13,   37,   7
243,   31,   7,   38,   35
244,   24,   35,   36,   25
245,   37,   15,   4,   13
246,   25,   24,   34,   36
247,   32,   6,   11,   36
248,   38,   6,   35,   7
249,   36,   35,   31,   32
250,   38,   35,   6,   32
251,   38,   10,   33,   32
252,   37,   7,   4,   3
253,   31,   38,   33,   32
254,   18,   37,   8,   38
255,   38,   33,   10,   18
256,   34,   29,   30,   25
257,   31,   37,   38,   7
258,   31,   38,   32,   35
259,   31,   37,   15,   19
260,   31,   33,   19,   27
261,   31,   20,   19,   15
262,   31,   20,   13,   14
263,   35,   14,   7,   12
264,   34,   30,   29,   28
265,   36,   34,   29,   22
266,   34,   30,   24,   25
267,   36,   6,   11,   12
268,   20,   14,   31,   24
269,   35,   12,   23,   17
270,   33,   19,   27,   26
271,   36,   22,   23,   11
272,   35,   17,   14,   12
273,   16,   22,   32,   11
274,   33,   21,   10,   18
275,   36,   22,   29,   23
276,   37,   9,   1,   4
277,   36,   23,   29,   25
278,   33,   19,   26,   18
279,   36,   34,   25,   29
280,   32,   5,   16,   11
281,   37,   19,   9,   15
282,   37,   18,   19,   33
283,   33,   34,   21,   26
284,   28,   22,   34,   21
285,   37,   15,   9,   4
286,   22,   34,   21,   32
287,   32,   10,   21,   16
288,   11,   6,   32,   5
289,   12,   35,   36,   6
290,   35,   12,   7,   6
291,   34,   27,   30,   28
292,   31,   27,   20,   24
293,   33,   18,   26,   21
294,   38,   2,   10,   5
295,   31,   34,   33,   27
296,   34,   24,   30,   27
297,   38,   2,   3,   1
298,   6,   35,   36,   32
299,   31,   33,   37,   19
300,   38,   5,   6,   3
301,   36,   32,   34,   22
302,   38,   7,   3,   6
303,   22,   32,   11,   36
304,   36,   25,   35,   23
305,   38,   5,   3,   2
306,   36,   11,   23,   12
307,   36,   32,   31,   34
308,   35,   25,   17,   23
309,   32,   22,   16,   21
310,   31,   20,   15,   13
311,   35,   17,   24,   14
312,   38,   1,   8,   2
313,   38,   8,   10,   2
314,   34,   29,   22,   28
315,   36,   24,   34,   31
316,   37,   13,   4,   7
317,   34,   28,   21,   26
318,   31,   24,   34,   27
319,   16,   5,   32,   10
320,   38,   8,   18,   10
321,   37,   1,   9,   8
322,   31,   27,   19,   20
323,   35,   25,   24,   17
*Elset, elset=CE_ELE, generate 
1,  220,  1 
*Elset, elset=AGG_ELE, generate 
221,  323,  1 
** Section: CE
*Solid Section, elset=CE_ELE, material=CE
,
** Section: AGG
*Solid Section, elset=AGG_ELE, material=AGG
,
*End Part
**  
**
** ASSEMBLY
**
*Assembly, name=Assembly
**
*Instance, name=PART-1-1, part=PART-1
*End Instance
** 
*Nset, nset=Fixed_BC, instance=PART-1-1
     41,      42,      44,      45,      50,      57,      58,      59,      60,      61,      73,      74
*Nset, nset=Load_BC_set, instance=PART-1-1
     39,      40,      43,      46,      47,      53,      54,      62,      63,      66,      79,      80
*End Assembly
** 
** MATERIALS
** 
*Material, name=AGG
*Elastic
36000., 0.25
*Density
2800.,
*Material, name=CE
*Elastic
20000., 0.25
*Density
2400.,
**
** BOUNDARY CONDITIONS
**
** Name: Fixed_Boundary Type: Displacement/Rotation
*Boundary
Fixed_BC, 1, 1
Fixed_BC, 2, 2
Fixed_BC, 3, 3
**
*Amplitude, name=Amp-1
             0.,              0.,              1.,              1.
** ----------------------------------------------------------------
**
*Step, name=Step-1, nlgeom=YES
*Dynamic, Explicit, direct user control
0.001, 1.
**
*Bulk Viscosity
0.06, 1.2
**
** BOUNDARY CONDITIONS
**
** Name: DispBC Type: Displacement/Rotation
*Boundary, amplitude=Amp-1
Load_BC_set, 3, 3, 1.
** 
** FIELD OUTPUT: F-Output-1
** 
*Output, field, variable=PRESELECT
** 
** HISTORY OUTPUT: H-Output-1
** 
*Output, history, variable=PRESELECT
*End Step
